<svg width="33" height="32" viewBox="0 0 33 32" fill="none" xmlns="http://www.w3.org/2000/svg">
  <path d="M16 6C10.4758 6 6 10.4758 6 16C6 21.5242 10.4758 26 16 26C21.5242 26 26 21.5242 26 16C26 10.4758 21.5242 6 16 6ZM16 24.0645C11.5444 24.0645 7.93548 20.4556 7.93548 16C7.93548 11.5444 11.5444 7.93548 16 7.93548C20.4556 7.93548 24.0645 11.5444 24.0645 16C24.0645 20.4556 20.4556 24.0645 16 24.0645ZM18.4919 19.8548L15.0685 17.3669C14.9435 17.2742 14.871 17.129 14.871 16.9758V10.3548C14.871 10.0887 15.0887 9.87097 15.3548 9.87097H16.6452C16.9113 9.87097 17.129 10.0887 17.129 10.3548V16.0685L19.8226 18.0282C20.0403 18.1855 20.0847 18.4879 19.9274 18.7056L19.1694 19.75C19.0121 19.9637 18.7097 20.0121 18.4919 19.8548Z" fill="#BFBFC5"/>
</svg>
