<svg width="32" height="32" viewBox="0 0 32 32" fill="none" xmlns="http://www.w3.org/2000/svg">
  <path d="M18.1971 9C14.2921 9 10.882 11.3962 8.98398 13.4463L5.19363 10.5566C4.66715 10.155 3.88113 10.5829 4.01568 11.198L5.06516 16L4.01525 20.8024C3.8807 21.4176 4.66672 21.845 5.19319 21.4438L8.98355 18.5541C10.8815 20.6038 14.2921 23 18.1971 23C24.1632 23 29 17.4 29 16C29 14.6 24.1632 9 18.1971 9ZM21.9918 17.05C21.4167 17.05 20.9501 16.5797 20.9501 16C20.9501 15.4199 21.4167 14.95 21.9918 14.95C22.5673 14.95 23.0334 15.4199 23.0334 16C23.0334 16.5797 22.5669 17.05 21.9918 17.05Z" fill="#F03360"/>
</svg>
