<svg width="157" height="38" viewBox="0 0 157 38" fill="none" xmlns="http://www.w3.org/2000/svg">
  <path fill-rule="evenodd" clip-rule="evenodd" d="M29.4798 6.73336C29.0029 6.25241 28.526 5.77146 28.0491 5.33422C24.4075 1.74893 19.7254 0 15 0C10.3179 0 5.59249 1.74893 1.95087 5.2905C1.47399 5.77146 0.99711 6.29613 0.520231 6.73336C-0.17341 7.43294 -0.17341 8.52601 0.520231 9.22558L2.99133 11.7178C3.68497 12.4174 4.81214 12.4174 5.50578 11.7178C6.11272 11.1057 6.71965 10.4498 7.36994 9.88143C9.53757 8.00134 12.2688 7.08315 14.9566 7.08315C16.7775 7.08315 18.6416 7.52038 20.289 8.35112L12.4855 16.1776C11.0983 17.5767 11.0983 19.8066 12.4855 21.162C13.8728 22.5611 16.1272 22.5611 17.5145 21.162C21.5029 17.1832 25.4913 13.2044 29.4798 9.18186C30.1734 8.52601 30.1734 7.38921 29.4798 6.73336Z" fill="#F03360"/>
  <path fill-rule="evenodd" clip-rule="evenodd" d="M27.0087 25.6654C26.315 24.9659 25.1879 24.9659 24.4942 25.6654L23.237 26.8897C20.9827 29.1633 17.9913 30.3001 15 30.3001C12.1387 30.3001 9.27746 29.2507 7.06647 27.1957C6.54624 26.7148 6.02601 26.1901 5.50578 25.6654C4.81214 24.9659 3.68497 24.9659 2.99133 25.6654L0.520231 28.1139C-0.17341 28.8135 -0.17341 29.9503 0.520231 30.6499C0.953757 31.0871 1.38728 31.5681 1.86416 32.0053C5.50578 35.5906 10.2746 37.3832 15 37.3832C20.2023 37.3832 24.7977 35.3282 28.4393 31.6992L29.4798 30.6499C30.1734 29.9503 30.1734 28.8135 29.4798 28.1139L27.0087 25.6654Z" fill="#BFBFC5"/>
  <path d="M51.1974 28.8093C50.9727 28.8093 50.7816 28.7307 50.6243 28.5733C50.467 28.416 50.3883 28.225 50.3883 28.0002V6.05382C50.3883 5.8066 50.4557 5.60433 50.5906 5.44701C50.7479 5.28968 50.9502 5.21102 51.1974 5.21102H59.9288C62.6707 5.21102 64.817 5.85155 66.3677 7.1326C67.941 8.41365 68.7276 10.2341 68.7276 12.5939C68.7276 14.2346 68.323 15.6168 67.5139 16.7405C66.7273 17.8417 65.6261 18.6396 64.2102 19.134L69.1321 27.7305C69.1995 27.8654 69.2332 27.989 69.2332 28.1014C69.2332 28.3036 69.1546 28.4722 68.9973 28.6071C68.8624 28.7419 68.7051 28.8093 68.5253 28.8093H65.4575C65.0979 28.8093 64.817 28.7307 64.6147 28.5733C64.4349 28.416 64.2664 28.1913 64.109 27.8991L59.7602 19.9094H55.0743V28.0002C55.0743 28.225 54.9956 28.416 54.8383 28.5733C54.7034 28.7307 54.5124 28.8093 54.2652 28.8093H51.1974ZM59.8276 16.1C61.1761 16.1 62.1875 15.7965 62.8617 15.1897C63.5584 14.5829 63.9068 13.7064 63.9068 12.5602C63.9068 11.414 63.5584 10.5263 62.8617 9.89697C62.1875 9.26768 61.1761 8.95304 59.8276 8.95304H55.0743V16.1H59.8276ZM80.0208 29.1464C77.5261 29.1464 75.5371 28.4273 74.0538 26.9889C72.5929 25.528 71.8176 23.4829 71.7277 20.8533L71.6939 20.0105L71.7277 19.1677C71.84 16.6056 72.6266 14.5942 74.0875 13.1333C75.5708 11.6725 77.5486 10.942 80.0208 10.942C82.6728 10.942 84.718 11.7511 86.1563 13.3693C87.6172 14.9875 88.3476 17.145 88.3476 19.842V20.5499C88.3476 20.7747 88.2689 20.9657 88.1116 21.123C87.9543 21.2803 87.752 21.359 87.5048 21.359H76.3125V21.6287C76.3574 22.8648 76.6945 23.9099 77.3238 24.7639C77.9756 25.5955 78.8633 26.0112 79.9871 26.0112C81.3131 26.0112 82.3806 25.4943 83.1897 24.4605C83.392 24.2133 83.5493 24.056 83.6617 23.9885C83.7965 23.9211 83.9875 23.8874 84.2348 23.8874H87.134C87.3363 23.8874 87.5048 23.9548 87.6397 24.0897C87.797 24.202 87.8756 24.3481 87.8756 24.5279C87.8756 25.0673 87.5498 25.7078 86.898 26.4495C86.2687 27.1687 85.3585 27.798 84.1673 28.3374C82.9762 28.8767 81.594 29.1464 80.0208 29.1464ZM83.7628 18.5272V18.4261C83.7628 17.1001 83.4257 16.0325 82.7514 15.2234C82.0997 14.4144 81.1895 14.0098 80.0208 14.0098C78.8521 14.0098 77.9419 14.4144 77.2901 15.2234C76.6384 16.0325 76.3125 17.1001 76.3125 18.4261V18.5272H83.7628ZM99.5112 29.1464C97.039 29.1464 95.0613 28.461 93.5779 27.09C92.1171 25.7191 91.3417 23.82 91.2518 21.3927L91.2181 20.0442L91.2518 18.6958C91.3417 16.2685 92.1171 14.3694 93.5779 12.9985C95.0613 11.6275 97.039 10.942 99.5112 10.942C101.264 10.942 102.748 11.2567 103.961 11.886C105.197 12.5153 106.108 13.2906 106.692 14.2121C107.299 15.1111 107.625 15.9651 107.67 16.7742C107.692 16.9989 107.613 17.19 107.434 17.3473C107.276 17.5046 107.085 17.5833 106.86 17.5833H103.894C103.669 17.5833 103.489 17.5383 103.354 17.4484C103.242 17.3361 103.13 17.1563 103.017 16.909C102.68 16.0325 102.231 15.4032 101.669 15.0212C101.129 14.6391 100.433 14.4481 99.5787 14.4481C98.4325 14.4481 97.5335 14.8189 96.8817 15.5606C96.2299 16.2798 95.8816 17.381 95.8366 18.8643L95.8029 20.1117L95.8366 21.2242C95.9265 24.1683 97.1739 25.6404 99.5787 25.6404C100.455 25.6404 101.163 25.4494 101.703 25.0673C102.242 24.6852 102.68 24.056 103.017 23.1794C103.13 22.9322 103.242 22.7637 103.354 22.6738C103.489 22.5614 103.669 22.5052 103.894 22.5052H106.86C107.085 22.5052 107.276 22.5839 107.434 22.7412C107.613 22.8985 107.692 23.0895 107.67 23.3143C107.625 24.1009 107.31 24.9437 106.726 25.8427C106.141 26.7417 105.242 27.517 104.029 28.1688C102.815 28.8206 101.309 29.1464 99.5112 29.1464ZM111.86 8.37994C111.635 8.37994 111.444 8.30128 111.286 8.14395C111.129 7.98663 111.05 7.7956 111.05 7.57085V5.1436C111.05 4.91885 111.129 4.72782 111.286 4.5705C111.444 4.41318 111.635 4.33451 111.86 4.33451H114.927C115.152 4.33451 115.343 4.41318 115.5 4.5705C115.68 4.72782 115.77 4.91885 115.77 5.1436V7.57085C115.77 7.7956 115.691 7.98663 115.534 8.14395C115.377 8.30128 115.175 8.37994 114.927 8.37994H111.86ZM111.994 28.8093C111.77 28.8093 111.579 28.7307 111.421 28.5733C111.264 28.416 111.185 28.225 111.185 28.0002V12.0882C111.185 11.8635 111.264 11.6725 111.421 11.5151C111.579 11.3578 111.77 11.2792 111.994 11.2792H114.792C115.04 11.2792 115.231 11.3578 115.366 11.5151C115.523 11.65 115.602 11.841 115.602 12.0882V28.0002C115.602 28.225 115.523 28.416 115.366 28.5733C115.231 28.7307 115.04 28.8093 114.792 28.8093H111.994ZM120.917 35.2146C120.692 35.2146 120.501 35.1359 120.344 34.9786C120.187 34.8437 120.108 34.6527 120.108 34.4055V12.0882C120.108 11.841 120.187 11.65 120.344 11.5151C120.501 11.3578 120.692 11.2792 120.917 11.2792H123.58C123.827 11.2792 124.018 11.3578 124.153 11.5151C124.311 11.65 124.389 11.841 124.389 12.0882V13.4367C125.648 11.7736 127.446 10.942 129.783 10.942C132.053 10.942 133.795 11.6612 135.009 13.0996C136.222 14.5155 136.874 16.4371 136.964 18.8643C136.986 19.134 136.998 19.5273 136.998 20.0442C136.998 20.5836 136.986 20.9882 136.964 21.2579C136.874 23.6177 136.222 25.528 135.009 26.9889C133.795 28.4273 132.053 29.1464 129.783 29.1464C127.513 29.1464 125.783 28.3486 124.592 26.7529V34.4055C124.592 34.6527 124.513 34.8437 124.356 34.9786C124.221 35.1359 124.03 35.2146 123.782 35.2146H120.917ZM128.536 25.5393C130.963 25.5393 132.255 24.0447 132.413 21.0556C132.435 20.8309 132.446 20.4937 132.446 20.0442C132.446 19.5948 132.435 19.2576 132.413 19.0329C132.255 16.0438 130.963 14.5492 128.536 14.5492C127.232 14.5492 126.266 14.965 125.637 15.7965C125.007 16.6281 124.659 17.6507 124.592 18.8643L124.558 20.1454L124.592 21.4601C124.636 22.5839 124.985 23.5503 125.637 24.3594C126.311 25.146 127.277 25.5393 128.536 25.5393ZM148.333 29.1464C145.839 29.1464 143.85 28.4273 142.366 26.9889C140.906 25.528 140.13 23.4829 140.04 20.8533L140.007 20.0105L140.04 19.1677C140.153 16.6056 140.939 14.5942 142.4 13.1333C143.883 11.6725 145.861 10.942 148.333 10.942C150.985 10.942 153.031 11.7511 154.469 13.3693C155.93 14.9875 156.66 17.145 156.66 19.842V20.5499C156.66 20.7747 156.582 20.9657 156.424 21.123C156.267 21.2803 156.065 21.359 155.817 21.359H144.625V21.6287C144.67 22.8648 145.007 23.9099 145.636 24.7639C146.288 25.5955 147.176 26.0112 148.3 26.0112C149.626 26.0112 150.693 25.4943 151.502 24.4605C151.705 24.2133 151.862 24.056 151.974 23.9885C152.109 23.9211 152.3 23.8874 152.547 23.8874H155.447C155.649 23.8874 155.817 23.9548 155.952 24.0897C156.11 24.202 156.188 24.3481 156.188 24.5279C156.188 25.0673 155.862 25.7078 155.211 26.4495C154.581 27.1687 153.671 27.798 152.48 28.3374C151.289 28.8767 149.907 29.1464 148.333 29.1464ZM152.075 18.5272V18.4261C152.075 17.1001 151.738 16.0325 151.064 15.2234C150.412 14.4144 149.502 14.0098 148.333 14.0098C147.165 14.0098 146.254 14.4144 145.603 15.2234C144.951 16.0325 144.625 17.1001 144.625 18.4261V18.5272H152.075Z" fill="#37393C"/>
</svg>
